%YAML 1.1
%TAG !u! tag:unity3d.com,2011:
--- !u!74 &7400000
AnimationClip:
  m_ObjectHideFlags: 0
  m_CorrespondingSourceObject: {fileID: 0}
  m_PrefabInstance: {fileID: 0}
  m_PrefabAsset: {fileID: 0}
  m_Name: JumpAnimation
  serializedVersion: 6
  m_Legacy: 0
  m_Compressed: 0
  m_UseHighQualityCurve: 1
  m_RotationCurves: []
  m_CompressedRotationCurves: []
  m_EulerCurves: []
  m_PositionCurves: []
  m_ScaleCurves: []
  m_FloatCurves: []
  m_PPtrCurves:
  - curve:
    - time: 0
      value: {fileID: 21300000, guid: 0811d8e94bc1d6e45b53ceed0f2badcb, type: 3}
    - time: 0.083333336
      value: {fileID: 21300000, guid: eea35bf146d3e494ead7fe662753526a, type: 3}
    - time: 0.16666667
      value: {fileID: 21300000, guid: bb84c9de37c379245b870b52fb073e25, type: 3}
    - time: 0.25
      value: {fileID: 21300000, guid: 450e167067c10bc4fae84b6e573af789, type: 3}
    - time: 0.33333334
      value: {fileID: 21300000, guid: 1c48c7bb131c4b34a906024284219439, type: 3}
    - time: 0.41666666
      value: {fileID: 21300000, guid: 5de10704109a36e44be81acb4c3363dd, type: 3}
    - time: 0.5
      value: {fileID: 21300000, guid: 597551194d1e2a240ab8720022789c42, type: 3}
    - time: 0.5833333
      value: {fileID: 21300000, guid: 017d376e0bf5338499ee9e855085acd7, type: 3}
    - time: 0.6666667
      value: {fileID: 21300000, guid: da752c2a7f65f5049b0757cbb19c9b19, type: 3}
    - time: 0.75
      value: {fileID: 21300000, guid: 929c8dd18e452574b86425f24b11dcdb, type: 3}
    - time: 0.8333333
      value: {fileID: 21300000, guid: 6bdee361540ae6041937dd3cb53cabd4, type: 3}
    - time: 0.9166667
      value: {fileID: 21300000, guid: c2272ceec605cf546a35cfd9ca95bc35, type: 3}
    - time: 1
      value: {fileID: 21300000, guid: 817ce7b1f6e4db14d8738e684abfde3d, type: 3}
    - time: 1.0833334
      value: {fileID: 21300000, guid: fe3ca2f3215200943a432b3065b35abd, type: 3}
    - time: 1.1666666
      value: {fileID: 21300000, guid: 134815b11ba486243946b63ae5d48f47, type: 3}
    - time: 1.25
      value: {fileID: 21300000, guid: 18c5107ad4de65a489e94419527c6ed7, type: 3}
    - time: 1.3333334
      value: {fileID: 21300000, guid: acacdfa1553effc4ca0fe648406a58b3, type: 3}
    - time: 1.4166666
      value: {fileID: 21300000, guid: b1924a7818b33094db5b55c3e1233851, type: 3}
    - time: 1.5
      value: {fileID: 21300000, guid: e67457ad776bac340b9e615c7204b682, type: 3}
    - time: 1.5833334
      value: {fileID: 21300000, guid: 0cbd3c319904b6f41aac60e90fd6531b, type: 3}
    - time: 1.6666666
      value: {fileID: 21300000, guid: 2f9bc544cd8c80c4b8d7b2d45d2329fb, type: 3}
    - time: 1.75
      value: {fileID: 21300000, guid: 0f4c267477c372141acf31ad4a3a40bc, type: 3}
    - time: 1.8333334
      value: {fileID: 21300000, guid: 7b0d906bb9b7e3e4a88d156d2fd96275, type: 3}
    - time: 1.9166666
      value: {fileID: 21300000, guid: b0106191fca060f428cbe4bd32b5b38b, type: 3}
    - time: 2
      value: {fileID: 21300000, guid: 3fb304fb607cd094ba724065ca265af7, type: 3}
    - time: 2.0833333
      value: {fileID: 21300000, guid: 55f43d53f3941d94b9fbe00887a6447e, type: 3}
    - time: 2.1666667
      value: {fileID: 21300000, guid: 4a1cc3d536eab9944b5ba5f7020d18c9, type: 3}
    - time: 2.25
      value: {fileID: 21300000, guid: 4283761155179e6458382abd52dd5202, type: 3}
    - time: 2.3333333
      value: {fileID: 21300000, guid: 187f3362c6f15d14f8efed72f4e0389e, type: 3}
    - time: 2.4166667
      value: {fileID: 21300000, guid: 6c39df0fdbe38134795fbffb4da8e19b, type: 3}
    - time: 2.5
      value: {fileID: 21300000, guid: 51633ecff90772347a2c78c808b75bb9, type: 3}
    - time: 2.5833333
      value: {fileID: 21300000, guid: 4912eee059079e54f8adbfe311742542, type: 3}
    - time: 2.6666667
      value: {fileID: 21300000, guid: cb4bbb133385bc94aaa22bc7357bffd4, type: 3}
    - time: 2.75
      value: {fileID: 21300000, guid: f3af3b3ade7338c46b4dab7d8586d9ca, type: 3}
    - time: 2.8333333
      value: {fileID: 21300000, guid: 6b9dc18613142d14caeb8592456baaff, type: 3}
    - time: 2.9166667
      value: {fileID: 21300000, guid: bcc3cae3ef03b2d46b98668d4bfd79ad, type: 3}
    - time: 3
      value: {fileID: 21300000, guid: e09075adbba93ae41aa8711c23adba35, type: 3}
    attribute: m_Sprite
    path: 
    classID: 212
    script: {fileID: 0}
  m_SampleRate: 12
  m_WrapMode: 0
  m_Bounds:
    m_Center: {x: 0, y: 0, z: 0}
    m_Extent: {x: 0, y: 0, z: 0}
  m_ClipBindingConstant:
    genericBindings:
    - serializedVersion: 2
      path: 0
      attribute: 0
      script: {fileID: 0}
      typeID: 212
      customType: 23
      isPPtrCurve: 1
    pptrCurveMapping:
    - {fileID: 21300000, guid: 0811d8e94bc1d6e45b53ceed0f2badcb, type: 3}
    - {fileID: 21300000, guid: eea35bf146d3e494ead7fe662753526a, type: 3}
    - {fileID: 21300000, guid: bb84c9de37c379245b870b52fb073e25, type: 3}
    - {fileID: 21300000, guid: 450e167067c10bc4fae84b6e573af789, type: 3}
    - {fileID: 21300000, guid: 1c48c7bb131c4b34a906024284219439, type: 3}
    - {fileID: 21300000, guid: 5de10704109a36e44be81acb4c3363dd, type: 3}
    - {fileID: 21300000, guid: 597551194d1e2a240ab8720022789c42, type: 3}
    - {fileID: 21300000, guid: 017d376e0bf5338499ee9e855085acd7, type: 3}
    - {fileID: 21300000, guid: da752c2a7f65f5049b0757cbb19c9b19, type: 3}
    - {fileID: 21300000, guid: 929c8dd18e452574b86425f24b11dcdb, type: 3}
    - {fileID: 21300000, guid: 6bdee361540ae6041937dd3cb53cabd4, type: 3}
    - {fileID: 21300000, guid: c2272ceec605cf546a35cfd9ca95bc35, type: 3}
    - {fileID: 21300000, guid: 817ce7b1f6e4db14d8738e684abfde3d, type: 3}
    - {fileID: 21300000, guid: fe3ca2f3215200943a432b3065b35abd, type: 3}
    - {fileID: 21300000, guid: 134815b11ba486243946b63ae5d48f47, type: 3}
    - {fileID: 21300000, guid: 18c5107ad4de65a489e94419527c6ed7, type: 3}
    - {fileID: 21300000, guid: acacdfa1553effc4ca0fe648406a58b3, type: 3}
    - {fileID: 21300000, guid: b1924a7818b33094db5b55c3e1233851, type: 3}
    - {fileID: 21300000, guid: e67457ad776bac340b9e615c7204b682, type: 3}
    - {fileID: 21300000, guid: 0cbd3c319904b6f41aac60e90fd6531b, type: 3}
    - {fileID: 21300000, guid: 2f9bc544cd8c80c4b8d7b2d45d2329fb, type: 3}
    - {fileID: 21300000, guid: 0f4c267477c372141acf31ad4a3a40bc, type: 3}
    - {fileID: 21300000, guid: 7b0d906bb9b7e3e4a88d156d2fd96275, type: 3}
    - {fileID: 21300000, guid: b0106191fca060f428cbe4bd32b5b38b, type: 3}
    - {fileID: 21300000, guid: 3fb304fb607cd094ba724065ca265af7, type: 3}
    - {fileID: 21300000, guid: 55f43d53f3941d94b9fbe00887a6447e, type: 3}
    - {fileID: 21300000, guid: 4a1cc3d536eab9944b5ba5f7020d18c9, type: 3}
    - {fileID: 21300000, guid: 4283761155179e6458382abd52dd5202, type: 3}
    - {fileID: 21300000, guid: 187f3362c6f15d14f8efed72f4e0389e, type: 3}
    - {fileID: 21300000, guid: 6c39df0fdbe38134795fbffb4da8e19b, type: 3}
    - {fileID: 21300000, guid: 51633ecff90772347a2c78c808b75bb9, type: 3}
    - {fileID: 21300000, guid: 4912eee059079e54f8adbfe311742542, type: 3}
    - {fileID: 21300000, guid: cb4bbb133385bc94aaa22bc7357bffd4, type: 3}
    - {fileID: 21300000, guid: f3af3b3ade7338c46b4dab7d8586d9ca, type: 3}
    - {fileID: 21300000, guid: 6b9dc18613142d14caeb8592456baaff, type: 3}
    - {fileID: 21300000, guid: bcc3cae3ef03b2d46b98668d4bfd79ad, type: 3}
    - {fileID: 21300000, guid: e09075adbba93ae41aa8711c23adba35, type: 3}
  m_AnimationClipSettings:
    serializedVersion: 2
    m_AdditiveReferencePoseClip: {fileID: 0}
    m_AdditiveReferencePoseTime: 0
    m_StartTime: 0
    m_StopTime: 3.0833333
    m_OrientationOffsetY: 0
    m_Level: 0
    m_CycleOffset: 0
    m_HasAdditiveReferencePose: 0
    m_LoopTime: 1
    m_LoopBlend: 0
    m_LoopBlendOrientation: 0
    m_LoopBlendPositionY: 0
    m_LoopBlendPositionXZ: 0
    m_KeepOriginalOrientation: 0
    m_KeepOriginalPositionY: 1
    m_KeepOriginalPositionXZ: 0
    m_HeightFromFeet: 0
    m_Mirror: 0
  m_EditorCurves: []
  m_EulerEditorCurves: []
  m_HasGenericRootTransform: 0
  m_HasMotionFloatCurves: 0
  m_Events: []
