%YAML 1.1
%TAG !u! tag:unity3d.com,2011:
--- !u!74 &7400000
AnimationClip:
  m_ObjectHideFlags: 0
  m_CorrespondingSourceObject: {fileID: 0}
  m_PrefabInstance: {fileID: 0}
  m_PrefabAsset: {fileID: 0}
  m_Name: Alien2AttackAnimation
  serializedVersion: 6
  m_Legacy: 0
  m_Compressed: 0
  m_UseHighQualityCurve: 1
  m_RotationCurves: []
  m_CompressedRotationCurves: []
  m_EulerCurves: []
  m_PositionCurves: []
  m_ScaleCurves: []
  m_FloatCurves: []
  m_PPtrCurves:
  - curve:
    - time: 0
      value: {fileID: 21300000, guid: 9ac36f60033405c4093d89051a42d1d3, type: 3}
    - time: 0.083333336
      value: {fileID: 21300000, guid: b13ea2a4a340e89408df30b59ce2fb5b, type: 3}
    - time: 0.16666667
      value: {fileID: 21300000, guid: 8ca9339deeed74c45a59f8ea6e3614de, type: 3}
    - time: 0.25
      value: {fileID: 21300000, guid: 973d057262ac43648bd59af35eb01bc8, type: 3}
    - time: 0.33333334
      value: {fileID: 21300000, guid: a3736b8f8403c1b41b0aea97cd11a366, type: 3}
    - time: 0.41666666
      value: {fileID: 21300000, guid: 6843d6874d7291840930dc0164b31d22, type: 3}
    - time: 0.5
      value: {fileID: 21300000, guid: 7efb452f36fb9cd4ba74706797b6363e, type: 3}
    - time: 0.5833333
      value: {fileID: 21300000, guid: 7e55ccffcd6da5744a5c7858acf4ed3f, type: 3}
    - time: 0.6666667
      value: {fileID: 21300000, guid: c608eaadf224cb5428d9f3bdc4c1b577, type: 3}
    - time: 0.75
      value: {fileID: 21300000, guid: a53d9ca8f6971e44d96de45c7acfe112, type: 3}
    - time: 0.8333333
      value: {fileID: 21300000, guid: 9da1c6d8096e19545bebfbea5e60fcd9, type: 3}
    - time: 0.9166667
      value: {fileID: 21300000, guid: 8c73c48ebaf502f40a6eae7da9067c56, type: 3}
    - time: 1
      value: {fileID: 21300000, guid: 11836f47b998bcf4aac4428f5c8e32c0, type: 3}
    attribute: m_Sprite
    path: 
    classID: 212
    script: {fileID: 0}
  m_SampleRate: 12
  m_WrapMode: 0
  m_Bounds:
    m_Center: {x: 0, y: 0, z: 0}
    m_Extent: {x: 0, y: 0, z: 0}
  m_ClipBindingConstant:
    genericBindings:
    - serializedVersion: 2
      path: 0
      attribute: 0
      script: {fileID: 0}
      typeID: 212
      customType: 23
      isPPtrCurve: 1
    pptrCurveMapping:
    - {fileID: 21300000, guid: 9ac36f60033405c4093d89051a42d1d3, type: 3}
    - {fileID: 21300000, guid: b13ea2a4a340e89408df30b59ce2fb5b, type: 3}
    - {fileID: 21300000, guid: 8ca9339deeed74c45a59f8ea6e3614de, type: 3}
    - {fileID: 21300000, guid: 973d057262ac43648bd59af35eb01bc8, type: 3}
    - {fileID: 21300000, guid: a3736b8f8403c1b41b0aea97cd11a366, type: 3}
    - {fileID: 21300000, guid: 6843d6874d7291840930dc0164b31d22, type: 3}
    - {fileID: 21300000, guid: 7efb452f36fb9cd4ba74706797b6363e, type: 3}
    - {fileID: 21300000, guid: 7e55ccffcd6da5744a5c7858acf4ed3f, type: 3}
    - {fileID: 21300000, guid: c608eaadf224cb5428d9f3bdc4c1b577, type: 3}
    - {fileID: 21300000, guid: a53d9ca8f6971e44d96de45c7acfe112, type: 3}
    - {fileID: 21300000, guid: 9da1c6d8096e19545bebfbea5e60fcd9, type: 3}
    - {fileID: 21300000, guid: 8c73c48ebaf502f40a6eae7da9067c56, type: 3}
    - {fileID: 21300000, guid: 11836f47b998bcf4aac4428f5c8e32c0, type: 3}
  m_AnimationClipSettings:
    serializedVersion: 2
    m_AdditiveReferencePoseClip: {fileID: 0}
    m_AdditiveReferencePoseTime: 0
    m_StartTime: 0
    m_StopTime: 1.0833334
    m_OrientationOffsetY: 0
    m_Level: 0
    m_CycleOffset: 0
    m_HasAdditiveReferencePose: 0
    m_LoopTime: 1
    m_LoopBlend: 0
    m_LoopBlendOrientation: 0
    m_LoopBlendPositionY: 0
    m_LoopBlendPositionXZ: 0
    m_KeepOriginalOrientation: 0
    m_KeepOriginalPositionY: 1
    m_KeepOriginalPositionXZ: 0
    m_HeightFromFeet: 0
    m_Mirror: 0
  m_EditorCurves: []
  m_EulerEditorCurves: []
  m_HasGenericRootTransform: 0
  m_HasMotionFloatCurves: 0
  m_Events: []
