%YAML 1.1
%TAG !u! tag:unity3d.com,2011:
--- !u!74 &7400000
AnimationClip:
  m_ObjectHideFlags: 0
  m_CorrespondingSourceObject: {fileID: 0}
  m_PrefabInstance: {fileID: 0}
  m_PrefabAsset: {fileID: 0}
  m_Name: MSilverAnimation
  serializedVersion: 6
  m_Legacy: 0
  m_Compressed: 0
  m_UseHighQualityCurve: 1
  m_RotationCurves: []
  m_CompressedRotationCurves: []
  m_EulerCurves: []
  m_PositionCurves: []
  m_ScaleCurves: []
  m_FloatCurves: []
  m_PPtrCurves:
  - curve:
    - time: 0
      value: {fileID: 21300000, guid: 9369d8569505b4946983169e06277f5b, type: 3}
    - time: 0.083333336
      value: {fileID: 21300000, guid: da49714f721dc8546b1341badd2175c8, type: 3}
    - time: 0.16666667
      value: {fileID: 21300000, guid: 6364eaff90b643845b367fd8e51e5899, type: 3}
    - time: 0.25
      value: {fileID: 21300000, guid: 84ad129ef8807c14590a6892a78504c1, type: 3}
    - time: 0.33333334
      value: {fileID: 21300000, guid: f66de1d519459a244ba00e3066024f83, type: 3}
    - time: 0.41666666
      value: {fileID: 21300000, guid: 5bfd5eb66c8b21648be110c38955812c, type: 3}
    - time: 0.5
      value: {fileID: 21300000, guid: c10fd400266259c4d83120d1d5e83eba, type: 3}
    - time: 0.5833333
      value: {fileID: 21300000, guid: 63adbf96c06d93045ae7e00e98f1fd2f, type: 3}
    - time: 0.6666667
      value: {fileID: 21300000, guid: 79db1185bb146c840b0f4d5c757b8fc8, type: 3}
    - time: 0.75
      value: {fileID: 21300000, guid: e620470680da19948944e73cb065f54c, type: 3}
    - time: 0.8333333
      value: {fileID: 21300000, guid: 6f0448d1b73eff64c9ec467b74df6f57, type: 3}
    - time: 0.9166667
      value: {fileID: 21300000, guid: bc2cd328fb9eb334290d6af1168d234e, type: 3}
    - time: 1
      value: {fileID: 21300000, guid: 500d6a24214571043a5da2fb1780535c, type: 3}
    - time: 1.0833334
      value: {fileID: 21300000, guid: aa84fdb08daeaaa48851edfd5af6fa17, type: 3}
    - time: 1.1666666
      value: {fileID: 21300000, guid: 064b637bbf1ab52408f75cb4db4f20aa, type: 3}
    - time: 1.25
      value: {fileID: 21300000, guid: ad312b99bd0800342b38ffdc791e1665, type: 3}
    - time: 1.3333334
      value: {fileID: 21300000, guid: c0ae1a43585cfc742a10c563b0b1b864, type: 3}
    - time: 1.4166666
      value: {fileID: 21300000, guid: 01c4f7544734123419da04e1f129e159, type: 3}
    - time: 1.5
      value: {fileID: 21300000, guid: 1ef7c942e9617cf4eb85a584d6682a84, type: 3}
    - time: 1.5833334
      value: {fileID: 21300000, guid: fa57d93e7e1fd78448e8214782342238, type: 3}
    - time: 1.6666666
      value: {fileID: 21300000, guid: b50ea98c4a9d813439a6736a3b7d3740, type: 3}
    - time: 1.75
      value: {fileID: 21300000, guid: fe856688a0d8f0d498499d8af0651626, type: 3}
    - time: 1.8333334
      value: {fileID: 21300000, guid: 2ae4dacd2c4cbee41b7590b4a83ad579, type: 3}
    - time: 1.9166666
      value: {fileID: 21300000, guid: 03bfb7a1c47c40646af3eb63f212ded9, type: 3}
    - time: 2
      value: {fileID: 21300000, guid: 28d8a4e2c81f9cc42bebe2a1e39b4b7d, type: 3}
    - time: 2.0833333
      value: {fileID: 21300000, guid: 4a6244e3f5b27724da41c4e5495064ad, type: 3}
    - time: 2.1666667
      value: {fileID: 21300000, guid: 7965d6987531186478aa6af1c3ae4f55, type: 3}
    - time: 2.25
      value: {fileID: 21300000, guid: 09ce3664b115baf48b480ec75f4b8541, type: 3}
    - time: 2.3333333
      value: {fileID: 21300000, guid: b33a2a11ec8cd1245bdb80c645f09e69, type: 3}
    - time: 2.4166667
      value: {fileID: 21300000, guid: b95e7881463bf4b44a8a3e638cfc4428, type: 3}
    attribute: m_Sprite
    path: 
    classID: 212
    script: {fileID: 0}
  m_SampleRate: 12
  m_WrapMode: 0
  m_Bounds:
    m_Center: {x: 0, y: 0, z: 0}
    m_Extent: {x: 0, y: 0, z: 0}
  m_ClipBindingConstant:
    genericBindings:
    - serializedVersion: 2
      path: 0
      attribute: 0
      script: {fileID: 0}
      typeID: 212
      customType: 23
      isPPtrCurve: 1
    pptrCurveMapping:
    - {fileID: 21300000, guid: 9369d8569505b4946983169e06277f5b, type: 3}
    - {fileID: 21300000, guid: da49714f721dc8546b1341badd2175c8, type: 3}
    - {fileID: 21300000, guid: 6364eaff90b643845b367fd8e51e5899, type: 3}
    - {fileID: 21300000, guid: 84ad129ef8807c14590a6892a78504c1, type: 3}
    - {fileID: 21300000, guid: f66de1d519459a244ba00e3066024f83, type: 3}
    - {fileID: 21300000, guid: 5bfd5eb66c8b21648be110c38955812c, type: 3}
    - {fileID: 21300000, guid: c10fd400266259c4d83120d1d5e83eba, type: 3}
    - {fileID: 21300000, guid: 63adbf96c06d93045ae7e00e98f1fd2f, type: 3}
    - {fileID: 21300000, guid: 79db1185bb146c840b0f4d5c757b8fc8, type: 3}
    - {fileID: 21300000, guid: e620470680da19948944e73cb065f54c, type: 3}
    - {fileID: 21300000, guid: 6f0448d1b73eff64c9ec467b74df6f57, type: 3}
    - {fileID: 21300000, guid: bc2cd328fb9eb334290d6af1168d234e, type: 3}
    - {fileID: 21300000, guid: 500d6a24214571043a5da2fb1780535c, type: 3}
    - {fileID: 21300000, guid: aa84fdb08daeaaa48851edfd5af6fa17, type: 3}
    - {fileID: 21300000, guid: 064b637bbf1ab52408f75cb4db4f20aa, type: 3}
    - {fileID: 21300000, guid: ad312b99bd0800342b38ffdc791e1665, type: 3}
    - {fileID: 21300000, guid: c0ae1a43585cfc742a10c563b0b1b864, type: 3}
    - {fileID: 21300000, guid: 01c4f7544734123419da04e1f129e159, type: 3}
    - {fileID: 21300000, guid: 1ef7c942e9617cf4eb85a584d6682a84, type: 3}
    - {fileID: 21300000, guid: fa57d93e7e1fd78448e8214782342238, type: 3}
    - {fileID: 21300000, guid: b50ea98c4a9d813439a6736a3b7d3740, type: 3}
    - {fileID: 21300000, guid: fe856688a0d8f0d498499d8af0651626, type: 3}
    - {fileID: 21300000, guid: 2ae4dacd2c4cbee41b7590b4a83ad579, type: 3}
    - {fileID: 21300000, guid: 03bfb7a1c47c40646af3eb63f212ded9, type: 3}
    - {fileID: 21300000, guid: 28d8a4e2c81f9cc42bebe2a1e39b4b7d, type: 3}
    - {fileID: 21300000, guid: 4a6244e3f5b27724da41c4e5495064ad, type: 3}
    - {fileID: 21300000, guid: 7965d6987531186478aa6af1c3ae4f55, type: 3}
    - {fileID: 21300000, guid: 09ce3664b115baf48b480ec75f4b8541, type: 3}
    - {fileID: 21300000, guid: b33a2a11ec8cd1245bdb80c645f09e69, type: 3}
    - {fileID: 21300000, guid: b95e7881463bf4b44a8a3e638cfc4428, type: 3}
  m_AnimationClipSettings:
    serializedVersion: 2
    m_AdditiveReferencePoseClip: {fileID: 0}
    m_AdditiveReferencePoseTime: 0
    m_StartTime: 0
    m_StopTime: 2.5
    m_OrientationOffsetY: 0
    m_Level: 0
    m_CycleOffset: 0
    m_HasAdditiveReferencePose: 0
    m_LoopTime: 1
    m_LoopBlend: 0
    m_LoopBlendOrientation: 0
    m_LoopBlendPositionY: 0
    m_LoopBlendPositionXZ: 0
    m_KeepOriginalOrientation: 0
    m_KeepOriginalPositionY: 1
    m_KeepOriginalPositionXZ: 0
    m_HeightFromFeet: 0
    m_Mirror: 0
  m_EditorCurves: []
  m_EulerEditorCurves: []
  m_HasGenericRootTransform: 0
  m_HasMotionFloatCurves: 0
  m_Events: []
