%YAML 1.1
%TAG !u! tag:unity3d.com,2011:
--- !u!74 &7400000
AnimationClip:
  m_ObjectHideFlags: 0
  m_CorrespondingSourceObject: {fileID: 0}
  m_PrefabInstance: {fileID: 0}
  m_PrefabAsset: {fileID: 0}
  m_Name: DeadAnimation
  serializedVersion: 6
  m_Legacy: 0
  m_Compressed: 0
  m_UseHighQualityCurve: 1
  m_RotationCurves: []
  m_CompressedRotationCurves: []
  m_EulerCurves: []
  m_PositionCurves: []
  m_ScaleCurves: []
  m_FloatCurves: []
  m_PPtrCurves:
  - curve:
    - time: 0
      value: {fileID: 21300000, guid: a7a5799d3ee4dda4d954da856762fca8, type: 3}
    - time: 0.083333336
      value: {fileID: 21300000, guid: 6c7751af89b947a49bf6bd5be19ef80e, type: 3}
    - time: 0.16666667
      value: {fileID: 21300000, guid: 60eb574f2a20e7a40ba4da35e76bdd0f, type: 3}
    - time: 0.25
      value: {fileID: 21300000, guid: c301d1ff0b4682f40b8a9ab779a29102, type: 3}
    - time: 0.33333334
      value: {fileID: 21300000, guid: 06ec5029b56f70e4fbf6d9913e906a4a, type: 3}
    - time: 0.41666666
      value: {fileID: 21300000, guid: b4d06b6e21b22e649a6cccfa0c15976b, type: 3}
    - time: 0.5
      value: {fileID: 21300000, guid: 4b1499654e2c3fc4cb2693eb2e029a2a, type: 3}
    - time: 0.5833333
      value: {fileID: 21300000, guid: 33e9e1d867fd54a45ae9e5671adff6cd, type: 3}
    - time: 0.6666667
      value: {fileID: 21300000, guid: cce1092a2cc5e8c4bbb8d9f82336dee1, type: 3}
    - time: 0.75
      value: {fileID: 21300000, guid: bcc5775b0af890043be8c9ce6f56a94b, type: 3}
    attribute: m_Sprite
    path: 
    classID: 212
    script: {fileID: 0}
  m_SampleRate: 12
  m_WrapMode: 0
  m_Bounds:
    m_Center: {x: 0, y: 0, z: 0}
    m_Extent: {x: 0, y: 0, z: 0}
  m_ClipBindingConstant:
    genericBindings:
    - serializedVersion: 2
      path: 0
      attribute: 0
      script: {fileID: 0}
      typeID: 212
      customType: 23
      isPPtrCurve: 1
    pptrCurveMapping:
    - {fileID: 21300000, guid: a7a5799d3ee4dda4d954da856762fca8, type: 3}
    - {fileID: 21300000, guid: 6c7751af89b947a49bf6bd5be19ef80e, type: 3}
    - {fileID: 21300000, guid: 60eb574f2a20e7a40ba4da35e76bdd0f, type: 3}
    - {fileID: 21300000, guid: c301d1ff0b4682f40b8a9ab779a29102, type: 3}
    - {fileID: 21300000, guid: 06ec5029b56f70e4fbf6d9913e906a4a, type: 3}
    - {fileID: 21300000, guid: b4d06b6e21b22e649a6cccfa0c15976b, type: 3}
    - {fileID: 21300000, guid: 4b1499654e2c3fc4cb2693eb2e029a2a, type: 3}
    - {fileID: 21300000, guid: 33e9e1d867fd54a45ae9e5671adff6cd, type: 3}
    - {fileID: 21300000, guid: cce1092a2cc5e8c4bbb8d9f82336dee1, type: 3}
    - {fileID: 21300000, guid: bcc5775b0af890043be8c9ce6f56a94b, type: 3}
  m_AnimationClipSettings:
    serializedVersion: 2
    m_AdditiveReferencePoseClip: {fileID: 0}
    m_AdditiveReferencePoseTime: 0
    m_StartTime: 0
    m_StopTime: 0.8333333
    m_OrientationOffsetY: 0
    m_Level: 0
    m_CycleOffset: 0
    m_HasAdditiveReferencePose: 0
    m_LoopTime: 1
    m_LoopBlend: 0
    m_LoopBlendOrientation: 0
    m_LoopBlendPositionY: 0
    m_LoopBlendPositionXZ: 0
    m_KeepOriginalOrientation: 0
    m_KeepOriginalPositionY: 1
    m_KeepOriginalPositionXZ: 0
    m_HeightFromFeet: 0
    m_Mirror: 0
  m_EditorCurves: []
  m_EulerEditorCurves: []
  m_HasGenericRootTransform: 0
  m_HasMotionFloatCurves: 0
  m_Events: []
