%YAML 1.1
%TAG !u! tag:unity3d.com,2011:
--- !u!74 &7400000
AnimationClip:
  m_ObjectHideFlags: 0
  m_CorrespondingSourceObject: {fileID: 0}
  m_PrefabInstance: {fileID: 0}
  m_PrefabAsset: {fileID: 0}
  m_Name: RunAnimation
  serializedVersion: 6
  m_Legacy: 0
  m_Compressed: 0
  m_UseHighQualityCurve: 1
  m_RotationCurves: []
  m_CompressedRotationCurves: []
  m_EulerCurves: []
  m_PositionCurves: []
  m_ScaleCurves: []
  m_FloatCurves: []
  m_PPtrCurves:
  - curve:
    - time: 0
      value: {fileID: 21300000, guid: e24de95bf61528440b7c8960d776cbee, type: 3}
    - time: 0.083333336
      value: {fileID: 21300000, guid: 96d453eb0c79f1c4e8037ba33160226f, type: 3}
    - time: 0.16666667
      value: {fileID: 21300000, guid: 145a795eba8f3914fae1caa7d61a0882, type: 3}
    - time: 0.25
      value: {fileID: 21300000, guid: 4fe392c2a993be441842a7652d70e258, type: 3}
    - time: 0.33333334
      value: {fileID: 21300000, guid: 63253963e4b255941986f4c7f483fea2, type: 3}
    - time: 0.41666666
      value: {fileID: 21300000, guid: 638db93d63b4e08408c1a952285713e6, type: 3}
    - time: 0.5
      value: {fileID: 21300000, guid: 03916e52f3b00df4dae605e44edfa7c1, type: 3}
    - time: 0.5833333
      value: {fileID: 21300000, guid: b55b3294110c8e14086e7c1d36b83611, type: 3}
    attribute: m_Sprite
    path: 
    classID: 212
    script: {fileID: 0}
  m_SampleRate: 12
  m_WrapMode: 0
  m_Bounds:
    m_Center: {x: 0, y: 0, z: 0}
    m_Extent: {x: 0, y: 0, z: 0}
  m_ClipBindingConstant:
    genericBindings:
    - serializedVersion: 2
      path: 0
      attribute: 0
      script: {fileID: 0}
      typeID: 212
      customType: 23
      isPPtrCurve: 1
    pptrCurveMapping:
    - {fileID: 21300000, guid: e24de95bf61528440b7c8960d776cbee, type: 3}
    - {fileID: 21300000, guid: 96d453eb0c79f1c4e8037ba33160226f, type: 3}
    - {fileID: 21300000, guid: 145a795eba8f3914fae1caa7d61a0882, type: 3}
    - {fileID: 21300000, guid: 4fe392c2a993be441842a7652d70e258, type: 3}
    - {fileID: 21300000, guid: 63253963e4b255941986f4c7f483fea2, type: 3}
    - {fileID: 21300000, guid: 638db93d63b4e08408c1a952285713e6, type: 3}
    - {fileID: 21300000, guid: 03916e52f3b00df4dae605e44edfa7c1, type: 3}
    - {fileID: 21300000, guid: b55b3294110c8e14086e7c1d36b83611, type: 3}
  m_AnimationClipSettings:
    serializedVersion: 2
    m_AdditiveReferencePoseClip: {fileID: 0}
    m_AdditiveReferencePoseTime: 0
    m_StartTime: 0
    m_StopTime: 0.6666666
    m_OrientationOffsetY: 0
    m_Level: 0
    m_CycleOffset: 0
    m_HasAdditiveReferencePose: 0
    m_LoopTime: 1
    m_LoopBlend: 0
    m_LoopBlendOrientation: 0
    m_LoopBlendPositionY: 0
    m_LoopBlendPositionXZ: 0
    m_KeepOriginalOrientation: 0
    m_KeepOriginalPositionY: 1
    m_KeepOriginalPositionXZ: 0
    m_HeightFromFeet: 0
    m_Mirror: 0
  m_EditorCurves: []
  m_EulerEditorCurves: []
  m_HasGenericRootTransform: 0
  m_HasMotionFloatCurves: 0
  m_Events: []
